…
require(move2)
require(rnaturalearth)
track <- movebank_download_study("Galapagos Albatrosses",
  sensor_type_id = "gps"
)
track
#> A <move2> with `track_id_column` "individual_local_identifier" and
#> `time_column` "timestamp"
#> Containing 28 tracks lasting on average 37.1 days in a
#> Simple feature collection with 16414 features and 18 fields (with 386 geometries empty)
#> Geometry type: POINT
#> Dimension:     XY
#> Bounding box:  xmin: -91.3732 ymin: -12.79464 xmax: -77.51874 ymax: 0.1821983
#> Geodetic CRS:  WGS 84
#> # A tibble: 16,414 × 19
#>   sensor_type_id individual_local_identifier eobs_battery_voltage
#>          <int64> <fct>                                       [mV]
#> 1            653 4264-84830852                               3686
#> 2            653 4264-84830852                               3701
#> 3            653 4264-84830852                               3701
#> 4            653 4264-84830852                               3691
#> # ℹ 16,410 more rows
#> # ℹ 16 more variables: eobs_fix_battery_voltage [mV],
#> #   eobs_horizontal_accuracy_estimate [m], eobs_key_bin_checksum <int64>,
#> #   eobs_speed_accuracy_estimate [m/s], eobs_start_timestamp <dttm>,
#> #   eobs_status <ord>, eobs_temperature [°C], eobs_type_of_fix <fct>,
#> #   eobs_used_time_to_get_fix [s], ground_speed [m/s], heading [°],
#> #   height_above_ellipsoid [m], timestamp <dttm>, visible <lgl>, …
#> First 4 track features:
#> # A tibble: 28 × 52
#>   deployment_id  tag_id individual_id animal_life_stage attachment_type
#>         <int64> <int64>       <int64> <fct>             <fct>          
#> 1       2911170 2911124       2911090 adult             tape           
#> 2       2911150 2911126       2911091 adult             tape           
#> 3       2911167 2911127       2911092 adult             tape           
#> 4       2911168 2911129       2911093 adult             tape           
#> # ℹ 24 more rows
#> # ℹ 47 more variables: deployment_comments <chr>, deploy_on_timestamp <dttm>,
#> #   duty_cycle <chr>, deployment_local_identifier <fct>,
#> #   manipulation_type <fct>, study_site <chr>, tag_readout_method <fct>,
#> #   sensor_type_ids <chr>, capture_location <POINT [°]>,
#> #   deploy_on_location <POINT [°]>, deploy_off_location <POINT [°]>,
#> #   individual_comments <chr>, individual_local_identifier <fct>, …
…
