Example analysis of albatross trajectories
…
For this example we download the data from the study ‘Galapagos Albatrosses’ (notice that matching is conducted if no study is named as such). Here we specify to only download data from the ‘gps’ sensor. Filtering at this early stage speeds up the working cycle as no unneeded data is extracted from the database. The resulting data is printed to the screen showing an overview of the data (here the number of lines are reduced). First general properties of the data are shown including the number of tracks and the average track duration. After, the first observations are printed. The units of attributes derived from the movebank vocabulary are associated to the locations are shown between square brackets. Finally, the summary of the track_data is printed, where each row corresponds to the track level data for each track.

In case the license terms for the study have not been accepted before, the download command will fail and prompt the user to read the license terms and accept these. This can be done by adding the license-md5 argument to the download command with the hash provided in the error message.

data <- movebank_download_study("Galapagos Albatrosses", sensor_type_id = "gps")
data
#> A <move2> with `track_id_column` "individual_local_identifier" and `time_column`
#> "timestamp"
#> Containing 28 tracks lasting on average 37.1 days in a
#> Simple feature collection with 16414 features and 18 fields (with 386 geometries empty)
#> Geometry type: POINT
#> Dimension:     XY
#> Bounding box:  xmin: -91.3732 ymin: -12.79464 xmax: -77.51874 ymax: 0.1821983
#> Geodetic CRS:  WGS 84
#> # A tibble: 16,414 × 19
#>   sensor_type_id individual_local_iden…¹ eobs_battery_voltage eobs_fix_battery_vol…²
#>          <int64> <fct>                                   [mV]                   [mV]
#> 1            653 4264-84830852                           3686                   3437
#> 2            653 4264-84830852                           3701                   3452
#> 3            653 4264-84830852                           3701                   3482
#> # ℹ 16,411 more rows
#> # ℹ abbreviated names: ¹​individual_local_identifier, ²​eobs_fix_battery_voltage
#> # ℹ 15 more variables: eobs_horizontal_accuracy_estimate [m],
#> #   eobs_key_bin_checksum <int64>, eobs_speed_accuracy_estimate [m/s],
#> #   eobs_start_timestamp <dttm>, eobs_status <ord>, …
#> First 3 track features:
#> # A tibble: 28 × 52
#>   deployment_id  tag_id individual_id animal_life_stage attachment_type
#>         <int64> <int64>       <int64> <fct>             <fct>          
#> 1       2911170 2911124       2911090 adult             tape           
#> 2       2911150 2911126       2911091 adult             tape           
#> 3       2911167 2911127       2911092 adult             tape           
#> # ℹ 25 more rows
#> # ℹ 47 more variables: deployment_comments <chr>, deploy_on_timestamp <dttm>,
#> #   duty_cycle <chr>, deployment_local_identifier <fct>, manipulation_type <fct>, …
…
