Filtering trajectories
…
Filtering locations

Omit empty locations

galapagos_albatrosses %>%
  filter(!st_is_empty(.))
#> A <move2> with `track_id_column` "individual_local_identifier" and `time_column`
#> "timestamp"
#> Containing 28 tracks lasting on average 37.1 days in a
#> Simple feature collection with 16028 features and 6 fields
#> Geometry type: POINT
#> Dimension:     XY
#> Bounding box:  xmin: -91.3732 ymin: -12.79464 xmax: -77.51874 ymax: 0.1821983
#> Geodetic CRS:  WGS 84
#> # A tibble: 16,028 × 7
#>   ground_speed heading height_above_ellipsoid eobs_temperature
#> *        [m/s]     [°]                    [m]             [°C]
#> 1         0.01   21.6                    16.5               12
#> 2         0      95.7                    12.6               19
#> 3         0.11   13.8                    17.4               24
#> 4         0.2     9.83                   24.8               18
#> 5         0.24   37.4                    19                 22
#> # ℹ 16,023 more rows
#> # ℹ 3 more variables: individual_local_identifier <fct>, timestamp <dttm>,
#> #   geometry <POINT [°]>
#> First 5 track features:
#> # A tibble: 28 × 4
#>   study_site       weight animal_life_stage individual_local_identifier
#>   <chr>               [g] <fct>             <fct>                      
#> 1 Isla de la Plata     22 adult             unbanded-151               
#> 2 Isla de la Plata     22 adult             unbanded-153               
#> 3 Isla de la Plata     22 adult             unbanded-154               
#> 4 Isla de la Plata     22 adult             unbanded-156               
#> 5 Isla de la Plata     22 adult             unbanded-159               
#> # ℹ 23 more rows
…
First location each 6 hour window

galapagos_albatrosses %>%
  filter(!st_is_empty(.)) %>%
  mt_filter_per_interval(unit = "6 hours")
#> A <move2> with `track_id_column` "individual_local_identifier" and `time_column`
#> "timestamp"
#> Containing 28 tracks lasting on average 37 days in a
#> Simple feature collection with 4109 features and 6 fields
#> Geometry type: POINT
#> Dimension:     XY
#> Bounding box:  xmin: -91.3296 ymin: -12.79464 xmax: -77.52837 ymax: 0.1814998
#> Geodetic CRS:  WGS 84
#> # A tibble: 4,109 × 7
#>   ground_speed heading height_above_ellipsoid eobs_temperature
#> *        [m/s]     [°]                    [m]             [°C]
#> 1         0.01   21.6                    16.5               12
#> 2         0.2     9.83                   24.8               18
#> 3         0.32  334.                     14.8               15
#> 4         0.08  330.                     10.4               11
#> 5         0.1    10.5                     8.6               12
#> # ℹ 4,104 more rows
#> # ℹ 3 more variables: individual_local_identifier <fct>, timestamp <dttm>,
#> #   geometry <POINT [°]>
#> First 5 track features:
#> # A tibble: 28 × 4
#>   study_site       weight animal_life_stage individual_local_identifier
#>   <chr>               [g] <fct>             <fct>                      
#> 1 Isla de la Plata     22 adult             unbanded-151               
#> 2 Isla de la Plata     22 adult             unbanded-153               
#> 3 Isla de la Plata     22 adult             unbanded-154               
#> 4 Isla de la Plata     22 adult             unbanded-156               
#> 5 Isla de la Plata     22 adult             unbanded-159               
#> # ℹ 23 more rows

Random location each day

galapagos_albatrosses %>%
  filter(!st_is_empty(.)) %>%
  mt_filter_per_interval(criterion = "random", unit = "days")
#> A <move2> with `track_id_column` "individual_local_identifier" and `time_column`
#> "timestamp"
#> Containing 28 tracks lasting on average 36.7 days in a
#> Simple feature collection with 1057 features and 6 fields
#> Geometry type: POINT
#> Dimension:     XY
#> Bounding box:  xmin: -91.23807 ymin: -12.78474 xmax: -77.56545 ymax: -0.1689596
#> Geodetic CRS:  WGS 84
#> # A tibble: 1,057 × 7
#>   ground_speed heading height_above_ellipsoid eobs_temperature
#> *        [m/s]     [°]                    [m]             [°C]
#> 1         0.01    21.6                   16.5               12
#> 2         0.11    36.0                   13                 21
#> 3         0.56   287.                    -0.4               17
#> 4         0.83   328.                    -3.9               11
#> 5        10.4    102.                    11.3                9
#> # ℹ 1,052 more rows
#> # ℹ 3 more variables: individual_local_identifier <fct>, timestamp <dttm>,
#> #   geometry <POINT [°]>
#> First 5 track features:
#> # A tibble: 28 × 4
#>   study_site       weight animal_life_stage individual_local_identifier
#>   <chr>               [g] <fct>             <fct>                      
#> 1 Isla de la Plata     22 adult             unbanded-151               
#> 2 Isla de la Plata     22 adult             unbanded-153               
#> 3 Isla de la Plata     22 adult             unbanded-154               
#> 4 Isla de la Plata     22 adult             unbanded-156               
#> 5 Isla de la Plata     22 adult             unbanded-159               
#> # ℹ 23 more rows
…
Duplicated records can be found in the following way:

galapagos_albatrosses %>%
  group_by(mt_time(), mt_track_id()) %>%
  filter(n() != 1) %>%
  arrange(mt_time())
#> A <move2> with `track_id_column` "individual_local_identifier" and `time_column`
#> "timestamp"
#> Containing 28 tracks lasting on average 36.7 days in a
#> Simple feature collection with 8092 features and 8 fields (with 4066 geometries empty)
#> Geometry type: POINT
#> Dimension:     XY
#> Bounding box:  xmin: -91.24518 ymin: -12.79464 xmax: -77.51874 ymax: 0.1821983
#> Geodetic CRS:  WGS 84
#> # A tibble: 8,092 × 9
#> # Groups:   mt_time(), mt_track_id() [4,046]
#>   ground_speed heading height_above_ellipsoid eobs_temperature
#>          [m/s]     [°]                    [m]             [°C]
#> 1         0.3     14.4                    7.9               27
#> 2        NA       NA                     NA                 NA
#> 3         0.55   330.                     1.6               24
#> 4        NA       NA                     NA                 NA
#> 5         0.15    53.1                   11.4               27
#> # ℹ 8,087 more rows
#> # ℹ 5 more variables: individual_local_identifier <fct>, timestamp <dttm>,
#> #   geometry <POINT [°]>, `mt_time()` <dttm>, `mt_track_id()` <fct>
#> First 5 track features:
#> # A tibble: 28 × 4
#>   study_site       weight animal_life_stage individual_local_identifier
#>   <chr>               [g] <fct>             <fct>                      
#> 1 Isla de la Plata     22 adult             unbanded-151               
#> 2 Isla de la Plata     22 adult             unbanded-153               
#> 3 Isla de la Plata     22 adult             unbanded-154               
#> 4 Isla de la Plata     22 adult             unbanded-156               
#> 5 Isla de la Plata     22 adult             unbanded-159               
#> # ℹ 23 more rows
…
This strategy how ever does not guarantee not duplicates are left, as two records might not be subsets from each other.

An alternative is to take a random record from each set of duplicates, this is not advised for formal analysis but might help for a quick inspection of data. This is also a lot quicker then inspecting subsets. How ever care needs to be taken as the example below, for example, results in empty points being retained at the cost of informative locations.

galapagos_albatrosses %>% mt_filter_unique("sample")
#> A <move2> with `track_id_column` "individual_local_identifier" and `time_column`
#> "timestamp"
#> Containing 28 tracks lasting on average 37.1 days in a
#> Simple feature collection with 110883 features and 6 fields (with 96829 geometries empty)
#> Geometry type: POINT
#> Dimension:     XY
#> Bounding box:  xmin: -91.3732 ymin: -12.79128 xmax: -77.52837 ymax: 0.1814998
#> Geodetic CRS:  WGS 84
#> # A tibble: 110,883 × 7
#>   ground_speed heading height_above_ellipsoid eobs_temperature
#> *        [m/s]     [°]                    [m]             [°C]
#> 1         0.01   21.6                    16.5               12
#> 2         0      95.7                    12.6               19
#> 3         0.11   13.8                    17.4               24
#> 4         0.2     9.83                   24.8               18
#> 5         0.24   37.4                    19                 22
#> # ℹ 110,878 more rows
#> # ℹ 3 more variables: individual_local_identifier <fct>, timestamp <dttm>,
#> #   geometry <POINT [°]>
#> First 5 track features:
#> # A tibble: 28 × 4
#>   study_site       weight animal_life_stage individual_local_identifier
#>   <chr>               [g] <fct>             <fct>                      
#> 1 Isla de la Plata     22 adult             unbanded-151               
#> 2 Isla de la Plata     22 adult             unbanded-153               
#> 3 Isla de la Plata     22 adult             unbanded-154               
#> 4 Isla de la Plata     22 adult             unbanded-156               
#> 5 Isla de la Plata     22 adult             unbanded-159               
#> # ℹ 23 more rows
…
Tracks with at least n locations

galapagos_albatrosses %>%
  group_by(mt_track_id()) %>%
  filter(n() > 500)
#> A <move2> with `track_id_column` "individual_local_identifier" and `time_column`
#> "timestamp"
#> Containing 20 tracks lasting on average 50.9 days in a
#> Simple feature collection with 112639 features and 7 fields (with 96941 geometries empty)
#> Geometry type: POINT
#> Dimension:     XY
#> Bounding box:  xmin: -91.3732 ymin: -12.79464 xmax: -77.51874 ymax: 0.1821983
#> Geodetic CRS:  WGS 84
#> # A tibble: 112,639 × 8
#> # Groups:   mt_track_id() [20]
#>   ground_speed heading height_above_ellipsoid eobs_temperature
#> *        [m/s]     [°]                    [m]             [°C]
#> 1         0.01   21.6                    16.5               12
#> 2         0      95.7                    12.6               19
#> 3         0.11   13.8                    17.4               24
#> 4         0.2     9.83                   24.8               18
#> 5         0.24   37.4                    19                 22
#> # ℹ 112,634 more rows
#> # ℹ 4 more variables: individual_local_identifier <fct>, timestamp <dttm>,
#> #   geometry <POINT [°]>, `mt_track_id()` <fct>
#> First 5 track features:
#> # A tibble: 20 × 4
#>   study_site       weight animal_life_stage individual_local_identifier
#>   <chr>               [g] <fct>             <fct>                      
#> 1 Isla de la Plata     22 adult             unbanded-151               
#> 2 Isla de la Plata     22 adult             unbanded-153               
#> 3 Isla de la Plata     22 adult             unbanded-154               
#> 4 Isla de la Plata     22 adult             unbanded-156               
#> 5 Isla de la Plata     22 adult             unbanded-159               
#> # ℹ 15 more rows

Tracks having a minimal duration

galapagos_albatrosses %>%
  group_by(mt_track_id()) %>%
  filter(as_units(diff(range(mt_time()))) > set_units(1, "week"))
#> A <move2> with `track_id_column` "individual_local_identifier" and `time_column`
#> "timestamp"
#> Containing 19 tracks lasting on average 53.3 days in a
#> Simple feature collection with 111971 features and 7 fields (with 96369 geometries empty)
#> Geometry type: POINT
#> Dimension:     XY
#> Bounding box:  xmin: -91.3732 ymin: -12.79464 xmax: -77.51874 ymax: 0.1821983
#> Geodetic CRS:  WGS 84
#> # A tibble: 111,971 × 8
#> # Groups:   mt_track_id() [19]
#>   ground_speed heading height_above_ellipsoid eobs_temperature
#> *        [m/s]     [°]                    [m]             [°C]
#> 1         0.01   21.6                    16.5               12
#> 2         0      95.7                    12.6               19
#> 3         0.11   13.8                    17.4               24
#> 4         0.2     9.83                   24.8               18
#> 5         0.24   37.4                    19                 22
#> # ℹ 111,966 more rows
#> # ℹ 4 more variables: individual_local_identifier <fct>, timestamp <dttm>,
#> #   geometry <POINT [°]>, `mt_track_id()` <fct>
#> First 5 track features:
#> # A tibble: 19 × 4
#>   study_site       weight animal_life_stage individual_local_identifier
#>   <chr>               [g] <fct>             <fct>                      
#> 1 Isla de la Plata     22 adult             unbanded-151               
#> 2 Isla de la Plata     22 adult             unbanded-153               
#> 3 Isla de la Plata     22 adult             unbanded-154               
#> 4 Isla de la Plata     22 adult             unbanded-156               
#> 5 Isla de la Plata     22 adult             unbanded-159               
#> # ℹ 14 more rows
…
# Filter to tracks making it at least once to the foraging area
galapagos_albatrosses %>%
  group_by(mt_track_id()) %>%
  filter(any(st_intersects(geometry, foraging_area, sparse = FALSE)))
#> A <move2> with `track_id_column` "individual_local_identifier" and `time_column`
#> "timestamp"
#> Containing 15 tracks lasting on average 63.9 days in a
#> Simple feature collection with 106151 features and 7 fields (with 91303 geometries empty)
#> Geometry type: POINT
#> Dimension:     XY
#> Bounding box:  xmin: -91.3732 ymin: -12.79464 xmax: -77.51874 ymax: 0.1821983
#> Geodetic CRS:  WGS 84
#> # A tibble: 106,151 × 8
#> # Groups:   mt_track_id() [15]
#>   ground_speed heading height_above_ellipsoid eobs_temperature
#> *        [m/s]     [°]                    [m]             [°C]
#> 1         0.01   21.6                    16.5               12
#> 2         0      95.7                    12.6               19
#> 3         0.11   13.8                    17.4               24
#> 4         0.2     9.83                   24.8               18
#> 5         0.24   37.4                    19                 22
#> # ℹ 106,146 more rows
#> # ℹ 4 more variables: individual_local_identifier <fct>, timestamp <dttm>,
#> #   geometry <POINT [°]>, `mt_track_id()` <fct>
#> First 5 track features:
#> # A tibble: 15 × 4
#>   study_site       weight animal_life_stage individual_local_identifier
#>   <chr>               [g] <fct>             <fct>                      
#> 1 Isla de la Plata     22 adult             unbanded-151               
#> 2 Isla de la Plata     22 adult             unbanded-153               
#> 3 Isla de la Plata     22 adult             unbanded-154               
#> 4 Isla de la Plata     22 adult             unbanded-156               
#> 5 Isla de la Plata     22 adult             unbanded-159               
#> # ℹ 10 more rows
Filter by track attribute

To use track attributes for filtering there is the filter_track_data function. This function works in the same way as filter from dplyr except that is operates on the track data. As soon as individuals are omitted from the track data the associated event data is also omitted.

galapagos_albatrosses %>%
  filter_track_data(study_site == "Punta Suarez")
#> A <move2> with `track_id_column` "individual_local_identifier" and `time_column`
#> "timestamp"
#> Containing 12 tracks lasting on average 28.4 days in a
#> Simple feature collection with 38072 features and 6 fields (with 32699 geometries empty)
#> Geometry type: POINT
#> Dimension:     XY
#> Bounding box:  xmin: -91.3732 ymin: -9.087225 xmax: -78.65155 ymax: -0.6481274
#> Geodetic CRS:  WGS 84
#> # A tibble: 38,072 × 7
#>   ground_speed heading height_above_ellipsoid eobs_temperature
#> *        [m/s]     [°]                    [m]             [°C]
#> 1         0.01   21.6                    16.5               12
#> 2         0      95.7                    12.6               19
#> 3         0.11   13.8                    17.4               24
#> 4         0.2     9.83                   24.8               18
#> 5         0.24   37.4                    19                 22
#> # ℹ 38,067 more rows
#> # ℹ 3 more variables: individual_local_identifier <fct>, timestamp <dttm>,
#> #   geometry <POINT [°]>
#> First 5 track features:
#> # A tibble: 12 × 4
#>   study_site   weight animal_life_stage individual_local_identifier
#>   <chr>           [g] <fct>             <fct>                      
#> 1 Punta Suarez     22 adult             4262-84830876              
#> 2 Punta Suarez     22 adult             4270-84831217              
#> 3 Punta Suarez     22 adult             4261-2228                  
#> 4 Punta Suarez     22 adult             4264-84830852              
#> 5 Punta Suarez     22 adult             4266-84831108              
#> # ℹ 7 more rows
…
  filter(!st_is_empty(.)) %>%
  mutate(
    next_new_track = mt_time_lags(.) > set_units(4, "h") |
      is.na(mt_time_lags(.)),
    track_index = cumsum(lag(next_new_track, default = FALSE))
  ) %>%
  mt_set_track_id("track_index")
#> A <move2> with `track_id_column` "track_index" and `time_column` "timestamp"
#> Containing 81 tracks lasting on average 12.4 days in a
#> Simple feature collection with 16028 features and 8 fields
#> Geometry type: POINT
#> Dimension:     XY
#> Bounding box:  xmin: -91.3732 ymin: -12.79464 xmax: -77.51874 ymax: 0.1821983
#> Geodetic CRS:  WGS 84
#> # A tibble: 16,028 × 9
#>   ground_speed heading height_above_ellipsoid eobs_temperature
#>          [m/s]     [°]                    [m]             [°C]
#> 1         0.01   21.6                    16.5               12
#> 2         0      95.7                    12.6               19
#> 3         0.11   13.8                    17.4               24
#> 4         0.2     9.83                   24.8               18
#> 5         0.24   37.4                    19                 22
#> # ℹ 16,023 more rows
#> # ℹ 5 more variables: individual_local_identifier <fct>, timestamp <dttm>,
#> #   geometry <POINT [°]>, next_new_track <lgl>, track_index <int>
#> First 5 track features:
#> # A tibble: 81 × 4
#>   track_index study_site     weight animal_life_stage
#>         <int> <chr>             [g] <fct>            
#> 1          51 Punta Cevallos     22 adult            
#> 2           3 Punta Cevallos     22 adult            
#> 3           4 Punta Cevallos     22 adult            
#> 4           5 Punta Cevallos     22 adult            
#> 5           6 Punta Cevallos     22 adult            
#> # ℹ 76 more rows
…
#> 
#>     date, intersect, setdiff, union
galapagos_albatrosses %>%
  mt_set_track_id(paste(mt_track_id(.),
    sep = "_", month.name[month(mt_time(.))]
  ))
#> A <move2> with `track_id_column` "individual_local_identifier" and `time_column`
#> "timestamp"
#> Containing 71 tracks lasting on average 14.6 days in a
#> Simple feature collection with 114929 features and 6 fields (with 98901 geometries empty)
#> Geometry type: POINT
#> Dimension:     XY
#> Bounding box:  xmin: -91.3732 ymin: -12.79464 xmax: -77.51874 ymax: 0.1821983
#> Geodetic CRS:  WGS 84
#> # A tibble: 114,929 × 7
#>   ground_speed heading height_above_ellipsoid eobs_temperature
#>          [m/s]     [°]                    [m]             [°C]
#> 1         0.01   21.6                    16.5               12
#> 2         0      95.7                    12.6               19
#> 3         0.11   13.8                    17.4               24
#> 4         0.2     9.83                   24.8               18
#> 5         0.24   37.4                    19                 22
#> # ℹ 114,924 more rows
#> # ℹ 3 more variables: individual_local_identifier <chr>, timestamp <dttm>,
#> #   geometry <POINT [°]>
…
